%YAML 1.1
%TAG !u! tag:unity3d.com,2011:
--- !u!1 &4276467326953519162
GameObject:
  m_ObjectHideFlags: 0
  m_CorrespondingSourceObject: {fileID: 0}
  m_PrefabInstance: {fileID: 0}
  m_PrefabAsset: {fileID: 0}
  serializedVersion: 6
  m_Component:
  - component: {fileID: 3248001875028609799}
  - component: {fileID: 4479682232793850863}
  - component: {fileID: 9208354576800487687}
  - component: {fileID: 1233641197677028492}
  m_Layer: 5
  m_Name: Electric Armor UI
  m_TagString: Untagged
  m_Icon: {fileID: 0}
  m_NavMeshLayer: 0
  m_StaticEditorFlags: 0
  m_IsActive: 1
--- !u!224 &3248001875028609799
RectTransform:
  m_ObjectHideFlags: 0
  m_CorrespondingSourceObject: {fileID: 0}
  m_PrefabInstance: {fileID: 0}
  m_PrefabAsset: {fileID: 0}
  m_GameObject: {fileID: 4276467326953519162}
  m_LocalRotation: {x: 0, y: 0, z: 0, w: 1}
  m_LocalPosition: {x: 0, y: 0, z: 0}
  m_LocalScale: {x: 0, y: 0, z: 0}
  m_Children:
  - {fileID: 6978304108913064843}
  m_Father: {fileID: 0}
  m_RootOrder: 0
  m_LocalEulerAnglesHint: {x: 0, y: 0, z: 0}
  m_AnchorMin: {x: 0, y: 0}
  m_AnchorMax: {x: 0, y: 0}
  m_AnchoredPosition: {x: 0, y: 0}
  m_SizeDelta: {x: 0, y: 0}
  m_Pivot: {x: 0, y: 0}
--- !u!223 &4479682232793850863
Canvas:
  m_ObjectHideFlags: 0
  m_CorrespondingSourceObject: {fileID: 0}
  m_PrefabInstance: {fileID: 0}
  m_PrefabAsset: {fileID: 0}
  m_GameObject: {fileID: 4276467326953519162}
  m_Enabled: 1
  serializedVersion: 3
  m_RenderMode: 0
  m_Camera: {fileID: 0}
  m_PlaneDistance: 100
  m_PixelPerfect: 0
  m_ReceivesEvents: 1
  m_OverrideSorting: 0
  m_OverridePixelPerfect: 0
  m_SortingBucketNormalizedSize: 0
  m_AdditionalShaderChannelsFlag: 25
  m_SortingLayerID: 0
  m_SortingOrder: 0
  m_TargetDisplay: 0
--- !u!114 &9208354576800487687
MonoBehaviour:
  m_ObjectHideFlags: 0
  m_CorrespondingSourceObject: {fileID: 0}
  m_PrefabInstance: {fileID: 0}
  m_PrefabAsset: {fileID: 0}
  m_GameObject: {fileID: 4276467326953519162}
  m_Enabled: 1
  m_EditorHideFlags: 0
  m_Script: {fileID: 11500000, guid: 0cd44c1031e13a943bb63640046fad76, type: 3}
  m_Name: 
  m_EditorClassIdentifier: 
  m_UiScaleMode: 1
  m_ReferencePixelsPerUnit: 100
  m_ScaleFactor: 1
  m_ReferenceResolution: {x: 1920, y: 1080}
  m_ScreenMatchMode: 0
  m_MatchWidthOrHeight: 1
  m_PhysicalUnit: 3
  m_FallbackScreenDPI: 96
  m_DefaultSpriteDPI: 96
  m_DynamicPixelsPerUnit: 1
--- !u!114 &1233641197677028492
MonoBehaviour:
  m_ObjectHideFlags: 0
  m_CorrespondingSourceObject: {fileID: 0}
  m_PrefabInstance: {fileID: 0}
  m_PrefabAsset: {fileID: 0}
  m_GameObject: {fileID: 4276467326953519162}
  m_Enabled: 1
  m_EditorHideFlags: 0
  m_Script: {fileID: 11500000, guid: dc42784cf147c0c48a680349fa168899, type: 3}
  m_Name: 
  m_EditorClassIdentifier: 
  m_IgnoreReversedGraphics: 1
  m_BlockingObjects: 0
  m_BlockingMask:
    serializedVersion: 2
    m_Bits: 4294967295
--- !u!1001 &4385375676268636040
PrefabInstance:
  m_ObjectHideFlags: 0
  serializedVersion: 2
  m_Modification:
    m_TransformParent: {fileID: 3248001875028609799}
    m_Modifications:
    - target: {fileID: 4583143331534467190, guid: edf6ee9ed2273c741b31cf077d90487f, type: 3}
      propertyPath: m_AnchoredPosition.x
      value: 562
      objectReference: {fileID: 0}
    - target: {fileID: 6632695506890122934, guid: edf6ee9ed2273c741b31cf077d90487f, type: 3}
      propertyPath: m_text
      value: Electric Armor
      objectReference: {fileID: 0}
    - target: {fileID: 6632695507112696832, guid: edf6ee9ed2273c741b31cf077d90487f, type: 3}
      propertyPath: m_Name
      value: Electric Armor
      objectReference: {fileID: 0}
    - target: {fileID: 6632695507112696834, guid: edf6ee9ed2273c741b31cf077d90487f, type: 3}
      propertyPath: m_Sprite
      value: 
      objectReference: {fileID: -8135391359944378620, guid: ea3f8d234705a8e459936d27afe80fc2, type: 3}
    - target: {fileID: 6632695507112696835, guid: edf6ee9ed2273c741b31cf077d90487f, type: 3}
      propertyPath: m_LocalPosition.x
      value: 0
      objectReference: {fileID: 0}
    - target: {fileID: 6632695507112696835, guid: edf6ee9ed2273c741b31cf077d90487f, type: 3}
      propertyPath: m_LocalPosition.y
      value: 0
      objectReference: {fileID: 0}
    - target: {fileID: 6632695507112696835, guid: edf6ee9ed2273c741b31cf077d90487f, type: 3}
      propertyPath: m_LocalPosition.z
      value: 0
      objectReference: {fileID: 0}
    - target: {fileID: 6632695507112696835, guid: edf6ee9ed2273c741b31cf077d90487f, type: 3}
      propertyPath: m_LocalRotation.x
      value: -0
      objectReference: {fileID: 0}
    - target: {fileID: 6632695507112696835, guid: edf6ee9ed2273c741b31cf077d90487f, type: 3}
      propertyPath: m_LocalRotation.y
      value: -0
      objectReference: {fileID: 0}
    - target: {fileID: 6632695507112696835, guid: edf6ee9ed2273c741b31cf077d90487f, type: 3}
      propertyPath: m_LocalRotation.z
      value: -0
      objectReference: {fileID: 0}
    - target: {fileID: 6632695507112696835, guid: edf6ee9ed2273c741b31cf077d90487f, type: 3}
      propertyPath: m_LocalRotation.w
      value: 1
      objectReference: {fileID: 0}
    - target: {fileID: 6632695507112696835, guid: edf6ee9ed2273c741b31cf077d90487f, type: 3}
      propertyPath: m_RootOrder
      value: 0
      objectReference: {fileID: 0}
    - target: {fileID: 6632695507112696835, guid: edf6ee9ed2273c741b31cf077d90487f, type: 3}
      propertyPath: m_LocalEulerAnglesHint.x
      value: 0
      objectReference: {fileID: 0}
    - target: {fileID: 6632695507112696835, guid: edf6ee9ed2273c741b31cf077d90487f, type: 3}
      propertyPath: m_LocalEulerAnglesHint.y
      value: 0
      objectReference: {fileID: 0}
    - target: {fileID: 6632695507112696835, guid: edf6ee9ed2273c741b31cf077d90487f, type: 3}
      propertyPath: m_LocalEulerAnglesHint.z
      value: 0
      objectReference: {fileID: 0}
    - target: {fileID: 6632695507112696835, guid: edf6ee9ed2273c741b31cf077d90487f, type: 3}
      propertyPath: m_AnchoredPosition.x
      value: 0
      objectReference: {fileID: 0}
    - target: {fileID: 6632695507112696835, guid: edf6ee9ed2273c741b31cf077d90487f, type: 3}
      propertyPath: m_AnchoredPosition.y
      value: 0
      objectReference: {fileID: 0}
    - target: {fileID: 6632695507112696835, guid: edf6ee9ed2273c741b31cf077d90487f, type: 3}
      propertyPath: m_SizeDelta.x
      value: -1137.8899
      objectReference: {fileID: 0}
    - target: {fileID: 6632695507112696835, guid: edf6ee9ed2273c741b31cf077d90487f, type: 3}
      propertyPath: m_SizeDelta.y
      value: -781.9706
      objectReference: {fileID: 0}
    - target: {fileID: 6632695507112696835, guid: edf6ee9ed2273c741b31cf077d90487f, type: 3}
      propertyPath: m_AnchorMin.x
      value: 0
      objectReference: {fileID: 0}
    - target: {fileID: 6632695507112696835, guid: edf6ee9ed2273c741b31cf077d90487f, type: 3}
      propertyPath: m_AnchorMin.y
      value: 0
      objectReference: {fileID: 0}
    - target: {fileID: 6632695507112696835, guid: edf6ee9ed2273c741b31cf077d90487f, type: 3}
      propertyPath: m_AnchorMax.x
      value: 1
      objectReference: {fileID: 0}
    - target: {fileID: 6632695507112696835, guid: edf6ee9ed2273c741b31cf077d90487f, type: 3}
      propertyPath: m_AnchorMax.y
      value: 1
      objectReference: {fileID: 0}
    - target: {fileID: 6632695507112696835, guid: edf6ee9ed2273c741b31cf077d90487f, type: 3}
      propertyPath: m_Pivot.x
      value: 0.5
      objectReference: {fileID: 0}
    - target: {fileID: 6632695507112696835, guid: edf6ee9ed2273c741b31cf077d90487f, type: 3}
      propertyPath: m_Pivot.y
      value: 0.5
      objectReference: {fileID: 0}
    - target: {fileID: 6632695508788170410, guid: edf6ee9ed2273c741b31cf077d90487f, type: 3}
      propertyPath: m_text
      value: 'this armor will absorbe 40% of incoming damage.


        makes noise
        all the time.'
      objectReference: {fileID: 0}
    m_RemovedComponents: []
  m_SourcePrefab: {fileID: 100100000, guid: edf6ee9ed2273c741b31cf077d90487f, type: 3}
--- !u!224 &6978304108913064843 stripped
RectTransform:
  m_CorrespondingSourceObject: {fileID: 6632695507112696835, guid: edf6ee9ed2273c741b31cf077d90487f, type: 3}
  m_PrefabInstance: {fileID: 4385375676268636040}
  m_PrefabAsset: {fileID: 0}
