%YAML 1.1
%TAG !u! tag:unity3d.com,2011:
--- !u!1001 &521423561437059419
PrefabInstance:
  m_ObjectHideFlags: 0
  serializedVersion: 2
  m_Modification:
    m_TransformParent: {fileID: 0}
    m_Modifications:
    - target: {fileID: 706616252171979152, guid: c0f5fbdf130f7194bba133c4eead3c3b, type: 3}
      propertyPath: m_LocalPosition.x
      value: 0
      objectReference: {fileID: 0}
    - target: {fileID: 706616252171979152, guid: c0f5fbdf130f7194bba133c4eead3c3b, type: 3}
      propertyPath: m_LocalPosition.y
      value: 0
      objectReference: {fileID: 0}
    - target: {fileID: 706616252171979152, guid: c0f5fbdf130f7194bba133c4eead3c3b, type: 3}
      propertyPath: m_LocalPosition.z
      value: 0
      objectReference: {fileID: 0}
    - target: {fileID: 706616252171979152, guid: c0f5fbdf130f7194bba133c4eead3c3b, type: 3}
      propertyPath: m_LocalRotation.x
      value: -0
      objectReference: {fileID: 0}
    - target: {fileID: 706616252171979152, guid: c0f5fbdf130f7194bba133c4eead3c3b, type: 3}
      propertyPath: m_LocalRotation.y
      value: -0
      objectReference: {fileID: 0}
    - target: {fileID: 706616252171979152, guid: c0f5fbdf130f7194bba133c4eead3c3b, type: 3}
      propertyPath: m_LocalRotation.z
      value: -0
      objectReference: {fileID: 0}
    - target: {fileID: 706616252171979152, guid: c0f5fbdf130f7194bba133c4eead3c3b, type: 3}
      propertyPath: m_LocalRotation.w
      value: 1
      objectReference: {fileID: 0}
    - target: {fileID: 706616252171979152, guid: c0f5fbdf130f7194bba133c4eead3c3b, type: 3}
      propertyPath: m_RootOrder
      value: 0
      objectReference: {fileID: 0}
    - target: {fileID: 706616252171979152, guid: c0f5fbdf130f7194bba133c4eead3c3b, type: 3}
      propertyPath: m_LocalEulerAnglesHint.x
      value: 0
      objectReference: {fileID: 0}
    - target: {fileID: 706616252171979152, guid: c0f5fbdf130f7194bba133c4eead3c3b, type: 3}
      propertyPath: m_LocalEulerAnglesHint.y
      value: 0
      objectReference: {fileID: 0}
    - target: {fileID: 706616252171979152, guid: c0f5fbdf130f7194bba133c4eead3c3b, type: 3}
      propertyPath: m_LocalEulerAnglesHint.z
      value: 0
      objectReference: {fileID: 0}
    - target: {fileID: 706616252171979152, guid: c0f5fbdf130f7194bba133c4eead3c3b, type: 3}
      propertyPath: m_AnchoredPosition.x
      value: 0
      objectReference: {fileID: 0}
    - target: {fileID: 706616252171979152, guid: c0f5fbdf130f7194bba133c4eead3c3b, type: 3}
      propertyPath: m_AnchoredPosition.y
      value: 0
      objectReference: {fileID: 0}
    - target: {fileID: 706616252171979152, guid: c0f5fbdf130f7194bba133c4eead3c3b, type: 3}
      propertyPath: m_SizeDelta.x
      value: 253.85449
      objectReference: {fileID: 0}
    - target: {fileID: 706616252171979152, guid: c0f5fbdf130f7194bba133c4eead3c3b, type: 3}
      propertyPath: m_SizeDelta.y
      value: 58.754578
      objectReference: {fileID: 0}
    - target: {fileID: 706616252171979152, guid: c0f5fbdf130f7194bba133c4eead3c3b, type: 3}
      propertyPath: m_AnchorMin.x
      value: 0
      objectReference: {fileID: 0}
    - target: {fileID: 706616252171979152, guid: c0f5fbdf130f7194bba133c4eead3c3b, type: 3}
      propertyPath: m_AnchorMin.y
      value: 0
      objectReference: {fileID: 0}
    - target: {fileID: 706616252171979152, guid: c0f5fbdf130f7194bba133c4eead3c3b, type: 3}
      propertyPath: m_AnchorMax.x
      value: 0
      objectReference: {fileID: 0}
    - target: {fileID: 706616252171979152, guid: c0f5fbdf130f7194bba133c4eead3c3b, type: 3}
      propertyPath: m_AnchorMax.y
      value: 0
      objectReference: {fileID: 0}
    - target: {fileID: 706616252171979152, guid: c0f5fbdf130f7194bba133c4eead3c3b, type: 3}
      propertyPath: m_Pivot.x
      value: 0.5
      objectReference: {fileID: 0}
    - target: {fileID: 706616252171979152, guid: c0f5fbdf130f7194bba133c4eead3c3b, type: 3}
      propertyPath: m_Pivot.y
      value: 0.5
      objectReference: {fileID: 0}
    - target: {fileID: 4109388741904833185, guid: c0f5fbdf130f7194bba133c4eead3c3b, type: 3}
      propertyPath: m_Sprite
      value: 
      objectReference: {fileID: -4929127674389385738, guid: fc9c83834629fcc46ba914ac97087552, type: 3}
    - target: {fileID: 4350635505828894008, guid: c0f5fbdf130f7194bba133c4eead3c3b, type: 3}
      propertyPath: m_Name
      value: Semi Chamber assem Bench
      objectReference: {fileID: 0}
    - target: {fileID: 5072833308390527822, guid: c0f5fbdf130f7194bba133c4eead3c3b, type: 3}
      propertyPath: m_text
      value: Semi Chamber
      objectReference: {fileID: 0}
    - target: {fileID: 7598261076178382085, guid: c0f5fbdf130f7194bba133c4eead3c3b, type: 3}
      propertyPath: semiChamber
      value: 1
      objectReference: {fileID: 0}
    - target: {fileID: 7598261076178382085, guid: c0f5fbdf130f7194bba133c4eead3c3b, type: 3}
      propertyPath: semiChamberPrefab
      value: 
      objectReference: {fileID: 4542247175276001122, guid: 58c0f611b9703834085eb45dbfb84c99, type: 3}
    m_RemovedComponents: []
  m_SourcePrefab: {fileID: 100100000, guid: c0f5fbdf130f7194bba133c4eead3c3b, type: 3}
