%YAML 1.1
%TAG !u! tag:unity3d.com,2011:
--- !u!1001 &8346918706751386930
PrefabInstance:
  m_ObjectHideFlags: 0
  serializedVersion: 2
  m_Modification:
    m_TransformParent: {fileID: 0}
    m_Modifications:
    - target: {fileID: 4276367151585622208, guid: 7dad9e827ddca8c4e87ed025aef9e936, type: 3}
      propertyPath: m_Sprite
      value: 
      objectReference: {fileID: 8320715021676251997, guid: fc9c83834629fcc46ba914ac97087552, type: 3}
    - target: {fileID: 4828986200374868622, guid: 7dad9e827ddca8c4e87ed025aef9e936, type: 3}
      propertyPath: m_LocalPosition.x
      value: 0
      objectReference: {fileID: 0}
    - target: {fileID: 4828986200374868622, guid: 7dad9e827ddca8c4e87ed025aef9e936, type: 3}
      propertyPath: m_LocalPosition.y
      value: 0
      objectReference: {fileID: 0}
    - target: {fileID: 4828986200374868622, guid: 7dad9e827ddca8c4e87ed025aef9e936, type: 3}
      propertyPath: m_LocalPosition.z
      value: 0
      objectReference: {fileID: 0}
    - target: {fileID: 4828986200374868622, guid: 7dad9e827ddca8c4e87ed025aef9e936, type: 3}
      propertyPath: m_LocalRotation.x
      value: -0
      objectReference: {fileID: 0}
    - target: {fileID: 4828986200374868622, guid: 7dad9e827ddca8c4e87ed025aef9e936, type: 3}
      propertyPath: m_LocalRotation.y
      value: -0
      objectReference: {fileID: 0}
    - target: {fileID: 4828986200374868622, guid: 7dad9e827ddca8c4e87ed025aef9e936, type: 3}
      propertyPath: m_LocalRotation.z
      value: -0
      objectReference: {fileID: 0}
    - target: {fileID: 4828986200374868622, guid: 7dad9e827ddca8c4e87ed025aef9e936, type: 3}
      propertyPath: m_LocalRotation.w
      value: 1
      objectReference: {fileID: 0}
    - target: {fileID: 4828986200374868622, guid: 7dad9e827ddca8c4e87ed025aef9e936, type: 3}
      propertyPath: m_RootOrder
      value: 0
      objectReference: {fileID: 0}
    - target: {fileID: 4828986200374868622, guid: 7dad9e827ddca8c4e87ed025aef9e936, type: 3}
      propertyPath: m_LocalEulerAnglesHint.x
      value: 0
      objectReference: {fileID: 0}
    - target: {fileID: 4828986200374868622, guid: 7dad9e827ddca8c4e87ed025aef9e936, type: 3}
      propertyPath: m_LocalEulerAnglesHint.y
      value: 0
      objectReference: {fileID: 0}
    - target: {fileID: 4828986200374868622, guid: 7dad9e827ddca8c4e87ed025aef9e936, type: 3}
      propertyPath: m_LocalEulerAnglesHint.z
      value: 0
      objectReference: {fileID: 0}
    - target: {fileID: 4828986200374868622, guid: 7dad9e827ddca8c4e87ed025aef9e936, type: 3}
      propertyPath: m_AnchoredPosition.x
      value: 960.972
      objectReference: {fileID: 0}
    - target: {fileID: 4828986200374868622, guid: 7dad9e827ddca8c4e87ed025aef9e936, type: 3}
      propertyPath: m_AnchoredPosition.y
      value: 591.93677
      objectReference: {fileID: 0}
    - target: {fileID: 4828986200374868622, guid: 7dad9e827ddca8c4e87ed025aef9e936, type: 3}
      propertyPath: m_SizeDelta.x
      value: 204.51186
      objectReference: {fileID: 0}
    - target: {fileID: 4828986200374868622, guid: 7dad9e827ddca8c4e87ed025aef9e936, type: 3}
      propertyPath: m_SizeDelta.y
      value: 43.55842
      objectReference: {fileID: 0}
    - target: {fileID: 4828986200374868622, guid: 7dad9e827ddca8c4e87ed025aef9e936, type: 3}
      propertyPath: m_AnchorMin.x
      value: 0
      objectReference: {fileID: 0}
    - target: {fileID: 4828986200374868622, guid: 7dad9e827ddca8c4e87ed025aef9e936, type: 3}
      propertyPath: m_AnchorMin.y
      value: 0
      objectReference: {fileID: 0}
    - target: {fileID: 4828986200374868622, guid: 7dad9e827ddca8c4e87ed025aef9e936, type: 3}
      propertyPath: m_AnchorMax.x
      value: 1
      objectReference: {fileID: 0}
    - target: {fileID: 4828986200374868622, guid: 7dad9e827ddca8c4e87ed025aef9e936, type: 3}
      propertyPath: m_AnchorMax.y
      value: 1
      objectReference: {fileID: 0}
    - target: {fileID: 4828986200374868622, guid: 7dad9e827ddca8c4e87ed025aef9e936, type: 3}
      propertyPath: m_Pivot.x
      value: 0.5
      objectReference: {fileID: 0}
    - target: {fileID: 4828986200374868622, guid: 7dad9e827ddca8c4e87ed025aef9e936, type: 3}
      propertyPath: m_Pivot.y
      value: 0.5
      objectReference: {fileID: 0}
    - target: {fileID: 5539282313531245136, guid: 7dad9e827ddca8c4e87ed025aef9e936, type: 3}
      propertyPath: m_Name
      value: AutoChamberUI
      objectReference: {fileID: 0}
    m_RemovedComponents: []
  m_SourcePrefab: {fileID: 100100000, guid: 7dad9e827ddca8c4e87ed025aef9e936, type: 3}
